<svg viewBox="0 0 114 40" xmlns="http://www.w3.org/2000/svg">
  <g fill-rule="nonzero" fill="none">
    <path fill="#EC1C24" d="M38.3188406 2.20289855h1.10144928v35.6521739H38.3188406zM107.652174 20.057971v7.5942029c-1.101449.4057971-2.666667.6376812-4.231884.6376812-5.5652175 0-9.0434784-3.0724638-9.0434784-8.057971 0-5.1014493 3.6521739-8.1739131 9.7971014-8.1739131 2.608696 0 5.043478.5217391 7.478261 1.5652174l.521739.2318841V9.04347826l-.231884-.05797101c-2.550725-.81159421-5.275362-1.21739131-8.057971-1.21739131-9.1014493 0-15.4782609 5.27536236-15.4782609 12.81159416 0 7.2463769 5.9130435 12.1159421 14.7246379 12.1159421 3.536232 0 7.362319-.6956522 10.144927-1.9130435l.231884-.115942V20.057971h-5.855072zm-21.7391305 6.5507247c-2.2608696 1.1014492-4.2898551 1.6231884-6.6086957 1.6231884-5.3333333 0-8.8115942-3.1884058-8.8115942-8.0579711 0-4.9855072 3.5362319-8.173913 8.9275363-8.173913 2.6086956 0 4.115942.6956522 6.1449275 1.5652174l.5217391.231884V8.98550725l-.231884-.11594203c-1.7971015-.69565218-3.5362319-1.27536232-6.5507247-1.27536232-8.6376811 0-14.8985507 5.3333333-14.8985507 12.6376812 0 7.5362318 5.4492754 12.231884 14.2608696 12.231884 2.7826087 0 4.4637681-.4057971 7.5942029-1.9130435l.231884-.115942-.115942-4.173913-.4637681.3478261zm-31.5362319-8.8695653c-2.4347826-1.0434782-4.5217391-1.9710145-4.5217391-3.5942029 0-1.9710145 2.3768116-2.2028985 3.4202898-2.2028985 2.0869565 0 4.2318841.5217391 6.3768116 1.4492753l.5217391.2318841V8.86956522l-.231884-.11594203C58.1449275 8 55.6521739 7.53623188 53.1014493 7.53623188c-6.3768116 0-9.2753623 3.53623192-9.2753623 6.89855072 0 4.2318841 3.7681159 5.9130435 7.1304347 7.3623188 2.5507247 1.1014493 4.7536232 2.0869566 4.7536232 3.884058 0 1.7971015-2.2028985 2.4347826-4.231884 2.4347826-2.4927537 0-5.2753623-1.4492753-6.7246377-2.3188406l-.5217391-.347826v4.6956521l.173913.1159421c2.0289855 1.2173913 3.884058 2.2028985 7.2463768 2.2028985 6.0869565 0 10.2028986-2.8405797 10.2028986-7.1304348-.1159421-4.4057971-4.1739131-6.1449275-7.4782609-7.5942029z"/>
    <path fill="#ED2524" d="M13.5652174 17.5652174l-.2318841.115942-.057971.4057971.4057971-.4637681zM13.1014493 17.3913043v-.4057971l.289855-.173913.1159421.057971"/>
    <path fill="#FFF" d="M17.6231884.11594203l-.2318841.17391304L.34782609 10.0289855v19.7681159l17.27536231 9.8550725 17.3333333-9.8550725V10.0289855z"/>
    <path d="M29.6811594 19.0724638L18.6666667 2.02898551c3.0144927 1.68115942 11.5942029 6.60869565 14.3768116 8.23188409l-3.3623189 8.8115942zm-.4637681 1.1014492c-.3478261.5217392-10.7826087 16.3478261-11.5362319 17.5652174-.8115942-1.1594203-11.18840578-17.0434782-11.53623186-17.5652174.28985507-.5217391 10.72463766-16.63768112 11.47826086-17.85507242.8115942 1.2173913 11.2463768 17.33333332 11.5942029 17.85507242zM5.62318841 19.0724638l-3.36231884-8.8115942C5.04347826 8.63768116 13.6231884 3.76811594 16.6376812 2.02898551L5.62318841 19.0724638zm-.69565218 1.0434782l-3.47826087 8.9855073V10.8405797l3.47826087 9.2753623zm.63768116 1.1014493L16.5797101 37.9710145c-3.0144927-1.7391304-11.65217387-6.6666667-14.37681155-8.2318841l3.36231884-8.5217391zm24.17391301 0l3.3623189 8.5217391c-2.7246377 1.5652174-11.3623189 6.4927537-14.3768116 8.2318841l11.0144927-16.7536232zm.6956522-1.0434783l3.4782609-9.3913043v18.3188406l-3.4782609-8.9275363z" fill="#ED2524"/>
    <path d="M11.5942029 19.0724638c-.2318841.289855-.9855072 1.2173913-1.85507247 1.8550724.40579707 0 1.27536237-.231884 2.20289857-1.2173913v-.289855c-.057971-.1159421-.2318841-.2318841-.3478261-.3478261M12.8115942 22.7246377c-.173913 0-.6376812.2898551-.5797101.5217391.057971.1739131.231884.2318841.173913.5797102-.057971.173913-.115942.4637681-.4057971.347826-.3478261-.115942-.2898551-1.1014492-.2318841-1.5652173.1159421-.6956522.2318841-1.6231885.0579711-2.5507247-.5217392.5217391-1.0434783.8115942-1.3913044.9275362.057971.5797102.057971 1.1594203.115942 1.5072464.0579711.4637681 0 2.3768116 1.3913044 2.4927536.5217391.0579711 1.0434782-.231884 1.2173913-.8695652.115942-.5217391.057971-1.3913043-.3478261-1.3913043M16.6956522 22.2608696c-.057971.231884-.2318841.5217391-.2318841.5217391s.2318841.2318841.5217391.3478261c0 0-.057971-1.3333334-.057971-1.5072464 0 0-.173913.5217391-.231884.6376812M24.057971 23.5942029c-.115942.2318841-.173913.6956522-.173913.8115942 0 .4057971 0 .8115942.115942 1.0434783.115942.4057971.057971.5797101.057971.5797101.2318841-.115942.115942-.4637681.057971-.8115942 0-.4057971.057971-1.1594203.2318841-1.5652174.173913-.4057971.057971-.6956522.057971-.6956522-.057971.3478261-.2318841.4057971-.3478261.6376812M16.6956522 25.9710145c-.1159421 0-.1739131.2318841-.1739131.4057971.1739131 0 .3478261-.057971.4637681-.115942-.057971-.1159421-.173913-.2898551-.289855-.2898551" fill="#FFF"/>
    <path d="M16.4637681 25.3333333c-.231884-.173913-.8115942-.8115942-1.4492753-1.0434782 0 0 .057971.8115942 0 1.1014492-.0579711.4057971-.1159421.6956522-.0579711.8115943.0579711-.1159421.1739131-.2898551.3478261-.2898551.057971 0 .1159421 0 .2318841.115942.057971.057971.115942.115942.115942.1739131.057971-.1159421.1739131-.2898551.3478261-.2898551.173913 0 .2898551.115942.3478261.2898551.057971-.1739131.115942-.2898551.2898551-.3478261.231884 0 .4057971.231884.4637681.3478261.115942-.1739131-.057971-.5217392-.057971-.8695653 0 0-.3478261.1739131-.5797102 0" fill="#FFF"/>
    <path d="M15.3623188 26.0289855c-.057971 0-.173913.115942-.231884.2898551.057971.057971.115942.057971.231884.057971h.2318841c0-.115942-.057971-.2318841-.115942-.2898551l-.1159421-.057971zM16.057971 26.0289855c-.115942 0-.231884.2318841-.2898551.3478261h.5217392c-.057971-.115942-.1159421-.3478261-.2318841-.3478261M17.3333333 23.826087c-.057971.057971.1159421.231884.2898551.4057971.057971-.1739131.057971-.3478261.057971-.4637682-.115942-.057971-.2898551-.057971-.3478261.0579711M17.1014493 24.2898551c-.057971.115942.057971.289855.173913.4057971.057971-.057971.115942-.1159421.1739131-.2318841.057971-.057971.057971-.115942.115942-.115942-.1739131-.057971-.4057971-.115942-.4637681-.057971M16.8115942 24.7536232l-.057971.057971c0 .057971.057971.173913.115942.2898551.115942-.057971.1739131-.1159421.2898551-.2318841-.115942-.115942-.2318841-.115942-.3478261-.115942M23.4782609 26.0289855c-.057971 0-.1739131.2318841-.2318841.4057971.1739131 0 .3478261-.057971.4637681-.115942-.057971-.1739131-.115942-.3478261-.231884-.2898551" fill="#FFF"/>
    <path d="M25.2173913 21.2173913s.057971-.6956522-.173913-2.8405797c-.1739131-2.1449275-1.7391305-3.3043478-2.7246377-4.115942-.9855073-.8115942-3.768116-1.3913044-4.5797102-1.4492754-.8115942-.057971-2.2608695.2898551-2.8405797.3478261-.5797101.115942-1.3333333-.1739131-2.3188406-.115942-.6376811.057971-1.1594202.8695652-1.1594202.8695652s-.5797102-.057971-.8695653.6956522c-.289855.7536231-.347826 1.0434782-.4057971 1.3913043-.057971.3478261-.057971 1.2753623 0 1.5652174 0 0-.057971.9275362 0 1.7971014 0 0-.057971.2898551-.86956518.8695653.69565217-.0579711.92753628-.3478261.92753628-.3478261 0 .115942 0 .173913.057971.231884.6956521-.6376811 1.2173913-1.3333333 1.2173913-1.3333333l.057971-.115942.5797101.4637681s-.057971.231884 0 .5217391c.057971.1739131.057971.2898551.057971.2898551s.2318841-.115942.3478261-.4057971c.057971-.3478261.1739131-.4637681.3478261-.5797102.1739131-.173913.4637681-.173913.7536232-.4057971.2318841-.115942.5217391-.5797101.5797102-.7536232l.057971-.173913s.289855.4637681.4057971.5797102c.115942-.1159421.231884-.2898551.289855-.4637682.1159421-.289855.1739131-.6376811.2318841-.9275362.057971-.173913.057971-.3478261.115942-.4637681l.1159421-.2898551c.115942-.2898551.347826-.7536232.347826-1.2173913 0-.231884-.057971-.5217391-.289855-.7536232-.4057971-.4637681-1.3913044-.4637681-1.3913044-.4637681s.8695652-.3478261 1.5652174.3478261.1739131 1.6811594-.057971 2.2028985l-.115942.2318841c-.057971.115942-.057971.2318841-.1159421.4057971-.057971.2898551-.115942.6956522-.231884.9855072-.115942.2898551-.4057971.6376812-.4057971.6376812l-.115942.115942s-.2318841-.347826-.3478261-.5217391c-.1159421.1739131-.2898551.4637681-.5217392.6376812l.5797102.8695652c.115942-.3478261.231884-.4637681.231884-.4637681-.115942.5217391-.347826 2.6086956-.4057971 3.4202898-.115942.8115942.2898551 1.0434783.5217392 1.1014493.173913.057971 1.1594203.6956522 1.5652174 1.0434783.173913.115942.289855.231884.4057971.289855-.0579711-.115942-.1159421-.289855-.0579711-.4057971 0-.057971.0579711-.115942.1739131-.115942h.231884c-.057971-.057971-.115942-.173913-.115942-.2898551 0-.057971 0-.057971.057971-.115942.057971-.115942.2318841-.115942.3478261-.115942-.057971-.1159421-.115942-.1739131-.115942-.2898551v-.057971c.057971-.115942.173913-.1739131.2898551-.1739131-.1739131-.115942-.3478261-.173913-.5217392-.231884-.231884-.115942-.8695652-.4637681-.7536232-.6956522.1159421-.231884.5217392-1.1014493.5797102-1.3913043.231884-.8695653.6376811-1.2173913.6376811-1.2173913-.173913.4057971-.231884.6376811-.231884.6376811 1.6811594.5217391 3.0724638.3478261 3.0724638.3478261-.2318841-.6376812 0-.7536232 0-.7536232.115942 1.2753623 1.2753623 2.3188406 1.5652173 2.8985507.2898551.5797102 0 1.7971015-.173913 2.5507247-.057971.115942 0 .231884.057971.3478261.057971-.1159421.2318841-.3478261.4057971-.3478261.057971 0 .1159421.057971.2318841.115942.057971.057971.057971.115942.115942.2318841.057971-.1159421.1739131-.2318841.3478261-.2318841.173913 0 .2898551.115942.2898551.2898551.057971-.1159421.173913-.2898551.289855-.2898551.1739131 0 .3478261.173913.4057971.2898551.0579711-.057971.0579711-.2318841 0-.4057971-.115942-.4057971-.173913-.8115942-.173913-1.1594203 0-.2318841.057971-.6956522.173913-1.1014493.1739131-.4637681.5217392-.6956522.4057971-1.0434782-.057971-.2898551-.173913-1.1014493-.057971-1.6231885.1159421-.5217391.4637681-2.0869565.4637681-2.0869565.3478261.7536232.2898551 2.5507247.2898551 2.5507247-.057971 1.2173913.3478261 1.6811594.3478261 1.6811594s.115942-.4637681.115942-.9275363c.1159421-.173913-.115942-.5797101-.115942-.5797101M12.8115942 16.115942c-.057971.1159421-.2898551.3478261-.2898551.3478261s-.115942-.4637681.1159421-.6956522c.231884-.231884.5217391-.115942.5217391-.115942s-.2898551.3478261-.3478261.4637681m2.5507246-1.3913043c.2898551.5797101-.173913 1.1014493-.173913 1.1014493s.057971-.6376812 0-.9275363c-.057971-.231884-.4057971-.4637681-.8115942-.5217391.057971-.057971.6956522-.2318841.9855072.3478261M22.8405797 26.0289855c-.115942 0-.231884.2318841-.2898551.3478261H23.1304348c-.115942-.115942-.1739131-.3478261-.2898551-.3478261M22.1449275 25.9710145c-.057971 0-.173913.173913-.289855.2898551.115942.057971.289855.115942.4637681.115942 0-.115942-.057971-.2898551-.115942-.3478261l-.0579711-.057971z" fill="#FFF"/>
  </g>
</svg>
